127.0.0.1 - - [05/Sep/2019:19:03:44 +0530] "GET / HTTP/1.1" 200 11488
127.0.0.1 - - [05/Sep/2019:19:03:44 +0530] "GET /tomcat.css HTTP/1.1" 200 5931
127.0.0.1 - - [05/Sep/2019:19:03:44 +0530] "GET /tomcat.png HTTP/1.1" 200 5103
127.0.0.1 - - [05/Sep/2019:19:03:44 +0530] "GET /bg-nav.png HTTP/1.1" 200 1401
127.0.0.1 - - [05/Sep/2019:19:03:44 +0530] "GET /favicon.ico HTTP/1.1" 200 8192
127.0.0.1 - - [05/Sep/2019:19:03:44 +0530] "GET /bg-upper.png HTTP/1.1" 200 3103
127.0.0.1 - - [05/Sep/2019:19:03:44 +0530] "GET /asf-logo-wide.svg HTTP/1.1" 304 -
127.0.0.1 - - [05/Sep/2019:19:03:44 +0530] "GET /bg-button.png HTTP/1.1" 304 -
127.0.0.1 - - [05/Sep/2019:19:03:44 +0530] "GET /bg-middle.png HTTP/1.1" 304 -
127.0.0.1 - - [05/Sep/2019:19:04:02 +0530] "GET /HelloWeb/hello HTTP/1.1" 200 41
